{
    "posts": [
      {
        "title": "New post 2",
        "author": "my post",
        "postText": "lorem ipsum sit amet",
        "id": 2
      }
    ],
    "comments": [],
    "profile": {
      "name": "typicode"
    }
  }
  